<?xml version="1.0" encoding="UTF-8" standalone="no"?>
<svg
   xmlns:osb="http://www.openswatchbook.org/uri/2009/osb"
   xmlns:dc="http://purl.org/dc/elements/1.1/"
   xmlns:cc="http://creativecommons.org/ns#"
   xmlns:rdf="http://www.w3.org/1999/02/22-rdf-syntax-ns#"
   xmlns:svg="http://www.w3.org/2000/svg"
   xmlns="http://www.w3.org/2000/svg"
   xmlns:sodipodi="http://sodipodi.sourceforge.net/DTD/sodipodi-0.dtd"
   xmlns:inkscape="http://www.inkscape.org/namespaces/inkscape"
   height="25"
   width="25"
   id="svg3384"
   version="1.1"
   inkscape:version="0.91 r13725"
   sodipodi:docname="border-primary-top-right.svg">
  <metadata
     id="metadata3392">
    <rdf:RDF>
      <cc:Work
         rdf:about="">
        <dc:format>image/svg+xml</dc:format>
        <dc:type
           rdf:resource="http://purl.org/dc/dcmitype/StillImage" />
        <dc:title></dc:title>
      </cc:Work>
    </rdf:RDF>
  </metadata>
  <defs
     id="defs3390">
    <linearGradient
       id="linearGradient5656"
       osb:paint="solid">
      <stop
         style="stop-color:#000000;stop-opacity:1;"
         offset="0"
         id="stop5658" />
    </linearGradient>
  </defs>
  <sodipodi:namedview
     pagecolor="#ffffff"
     bordercolor="#666666"
     borderopacity="1"
     objecttolerance="10"
     gridtolerance="10"
     guidetolerance="10"
     inkscape:pageopacity="0"
     inkscape:pageshadow="2"
     inkscape:window-width="1600"
     inkscape:window-height="876"
     id="namedview3388"
     showgrid="false"
     inkscape:zoom="16"
     inkscape:cx="5.1026018"
     inkscape:cy="9.8027119"
     inkscape:window-x="0"
     inkscape:window-y="24"
     inkscape:window-maximized="1"
     inkscape:current-layer="svg3384" />
  <path
     style="fill:#7659ff;fill-opacity:1;stroke:#7659ff;stroke-width:0.04419417;stroke-opacity:1"
     d="m 22.03667,6.4785947 0,-3.4913397 -3.513437,0 -3.513437,0 0,-1.4805048 0,-1.48050482 4.993942,0 4.993941,0 0,4.97184452 0,4.9718446 -1.480505,0 -1.480504,0 0,-3.4913398 z"
     id="path5680"
     inkscape:connector-curvature="0" />
  <path
     style="fill:#7659ff;fill-opacity:1;stroke:#7659ff;stroke-width:0.04419417;stroke-opacity:1"
     d="m 0.02797109,20.002012 0,-4.993942 1.48050481,0 1.4805048,0 0,3.513437 0,3.513437 3.4913398,0 3.4913397,0 0,1.480505 0,1.480505 -4.9718446,0 -4.97184451,0 0,-4.993942 z"
     id="path5684"
     inkscape:connector-curvature="0" />
</svg>
