<?xml version="1.0" encoding="UTF-8" standalone="no"?>
<svg
   xmlns:dc="http://purl.org/dc/elements/1.1/"
   xmlns:cc="http://creativecommons.org/ns#"
   xmlns:rdf="http://www.w3.org/1999/02/22-rdf-syntax-ns#"
   xmlns:svg="http://www.w3.org/2000/svg"
   xmlns="http://www.w3.org/2000/svg"
   xmlns:sodipodi="http://sodipodi.sourceforge.net/DTD/sodipodi-0.dtd"
   xmlns:inkscape="http://www.inkscape.org/namespaces/inkscape"
   height="25"
   width="25"
   id="svg5758"
   version="1.1"
   inkscape:version="0.91 r13725"
   sodipodi:docname="border-warning-top-left.svg">
  <metadata
     id="metadata5766">
    <rdf:RDF>
      <cc:Work
         rdf:about="">
        <dc:format>image/svg+xml</dc:format>
        <dc:type
           rdf:resource="http://purl.org/dc/dcmitype/StillImage" />
        <dc:title></dc:title>
      </cc:Work>
    </rdf:RDF>
  </metadata>
  <defs
     id="defs5764" />
  <sodipodi:namedview
     pagecolor="#ffffff"
     bordercolor="#666666"
     borderopacity="1"
     objecttolerance="10"
     gridtolerance="10"
     guidetolerance="10"
     inkscape:pageopacity="0"
     inkscape:pageshadow="2"
     inkscape:window-width="1600"
     inkscape:window-height="876"
     id="namedview5762"
     showgrid="false"
     inkscape:zoom="13.350176"
     inkscape:cx="18.143385"
     inkscape:cy="16.249283"
     inkscape:window-x="0"
     inkscape:window-y="24"
     inkscape:window-maximized="1"
     inkscape:current-layer="svg5758" />
  <path
     style="fill:#ffcb17;fill-opacity:1;stroke:#ffcb17;stroke-width:0.03745269;stroke-opacity:1"
     d="m 15.019677,23.502074 0,-1.498108 3.501826,0 3.501827,0 0,-3.501827 0,-3.501826 1.479381,0 1.479381,0 0,4.999934 0,4.999934 -4.981207,0 -4.981208,0 0,-1.498107 z"
     id="path6364"
     inkscape:connector-curvature="0" />
  <path
     style="fill:#ffcb17;fill-opacity:1;stroke:#ffcb17;stroke-width:0.03745269;stroke-opacity:1"
     d="m 0.00114839,5.0004448 0,-4.98120773 4.99993411,0 4.9999345,0 0,1.47938123 0,1.4793813 -3.5018269,0 -3.5018265,0 0,3.5018264 0,3.5018265 -1.4981076,0 -1.49810761,0 0,-4.9812077 z"
     id="path6368"
     inkscape:connector-curvature="0" />
</svg>
